Extending fabletools: Models • fabletools
…
#' @importFrom fabletools fitted
#' @export
fitted.model_smean <- function(object, ...){
  object$fitted
}

fitted(fit)
#> # A tsibble: 218 x 3 [1Q]
#> # Key:       .model [1]
#>    .model      Quarter .fitted
#>    <chr>         <qtr>   <dbl>
#>  1 SMEAN(Beer) 1956 Q1    417.
#>  2 SMEAN(Beer) 1956 Q2    373.
#>  3 SMEAN(Beer) 1956 Q3    387.
#>  4 SMEAN(Beer) 1956 Q4    485.
#>  5 SMEAN(Beer) 1957 Q1    417.
#>  6 SMEAN(Beer) 1957 Q2    373.
#>  7 SMEAN(Beer) 1957 Q3    387.
#>  8 SMEAN(Beer) 1957 Q4    485.
#>  9 SMEAN(Beer) 1958 Q1    417.
#> 10 SMEAN(Beer) 1958 Q2    373.
#> # … with 208 more rows

#' @importFrom fabletools residuals
#' @export
residuals.model_smean <- function(object, ...){
  object$residuals
}

residuals(fit)
#> # A tsibble: 218 x 3 [1Q]
#> # Key:       .model [1]
#>    .model      Quarter .resid
#>    <chr>         <qtr>  <dbl>
#>  1 SMEAN(Beer) 1956 Q1  -133.
#>  2 SMEAN(Beer) 1956 Q2  -160.
#>  3 SMEAN(Beer) 1956 Q3  -160.
#>  4 SMEAN(Beer) 1956 Q4  -177.
#>  5 SMEAN(Beer) 1957 Q1  -155.
#>  6 SMEAN(Beer) 1957 Q2  -145.
#>  7 SMEAN(Beer) 1957 Q3  -151.
#>  8 SMEAN(Beer) 1957 Q4  -165.
#>  9 SMEAN(Beer) 1958 Q1  -145.
#> 10 SMEAN(Beer) 1958 Q2  -140.
#> # … with 208 more rows
…
