Expand a dataset to include temporal aggregates — aggregate_index • fabletools
…
A number, taken to be in days.

A difftime object.

    Examples

library(tsibble)
pedestrian %>%
  # Currently only supports daily data
  index_by(Date) %>% 
  dplyr::summarise(Count = sum(Count)) %>% 
  # Compute weekly aggregates
  fabletools:::aggregate_index("1 week", Count = sum(Count))

#> # A tsibble: 104 x 2 [7D]
#>    Date        Count
#>    <date>      <int>
#>  1 2015-01-03 182896
#>  2 2015-01-10 231513
#>  3 2015-01-17 348879
#>  4 2015-01-24 313666
#>  5 2015-01-31 238603
#>  6 2015-02-07 219104
#>  7 2015-02-14 377340
#>  8 2015-02-21 530409
#>  9 2015-02-28 444666
#> 10 2015-03-07 614122
#> # … with 94 more rows
…
