Augment a mable — augment.mdl_df • fabletools
…
      ...
      Arguments for model methods.

    Examples

if (requireNamespace("fable", quietly = TRUE)) {
library(fable)
library(tsibbledata)

# Forecasting with an ETS(M,Ad,A) model to Australian beer production
aus_production %>%
  model(ets = ETS(log(Beer) ~ error("M") + trend("Ad") + season("A"))) %>%
  augment(type = "response")
}
#> # A tsibble: 218 x 5 [1Q]
#> # Key:       .model [1]
#>    .model Quarter  Beer .fitted .resid
#>    <chr>    <qtr> <dbl>   <dbl>  <dbl>
#>  1 ets    1956 Q1  284.    267.  17.0 
#>  2 ets    1956 Q2  213.    224. -10.6 
#>  3 ets    1956 Q3  227.    236.  -9.02
#>  4 ets    1956 Q4  308.    303.   4.62
#>  5 ets    1957 Q1  262.    272.  -9.61
#>  6 ets    1957 Q2  228.    218.   9.96
#>  7 ets    1957 Q3  236.    234.   2.34
#>  8 ets    1957 Q4  320.    306.  13.6 
#>  9 ets    1958 Q1  272.    273.  -1.49
#> 10 ets    1958 Q2  233.    225.   7.90
#> # … with 208 more rows
…
