Box Cox Transformation — box_cox • fabletools
…
    References

    Box, G. E. P. and Cox, D. R. (1964) An analysis of
transformations. JRSS B 26 211--246.

    Examples

library(tsibble)
library(dplyr)
airmiles %>%
  as_tsibble() %>%
  mutate(box_cox = box_cox(value, lambda = 0.3))
#> # A tsibble: 24 x 3 [1Y]
#>    index value box_cox
#>    <dbl> <dbl>   <dbl>
#>  1  1937   412    17.0
#>  2  1938   480    17.9
#>  3  1939   683    20.3
#>  4  1940  1052    23.6
#>  5  1941  1385    25.9
#>  6  1942  1418    26.1
#>  7  1943  1634    27.3
#>  8  1944  2178    30.1
#>  9  1945  3362    34.8
#> 10  1946  5948    41.9
#> # … with 14 more rows
…
