Generate responses from a mable — generate.mdl_df • fabletools
…
    Innovations are sampled by the model's assumed error distribution.
If bootstrap is TRUE, innovations will be sampled from the model's
residuals. If new_data contains the .innov column, those values will be
treated as innovations for the simulated paths..

    Examples

library(dplyr)
library(fable)
UKLungDeaths <- as_tsibble(cbind(mdeaths, fdeaths), pivot_longer = FALSE)
UKLungDeaths %>%
  model(lm = TSLM(mdeaths ~ fourier("year", K = 4) + fdeaths)) %>%
  generate(UKLungDeaths, times = 5)
#> # A tsibble: 360 x 5 [1M]
#> # Key:       .model, .rep [5]
#>    new_data           .model  .rep    index  .sim
#>    <list>             <chr>  <int>    <mth> <dbl>
#>  1 <tsibble [72 × 3]> lm         1 1974 Jan 2286.
#>  2 <tsibble [72 × 3]> lm         1 1974 Feb 1779.
#>  3 <tsibble [72 × 3]> lm         1 1974 Mar 2114.
#>  4 <tsibble [72 × 3]> lm         1 1974 Apr 1761.
#>  5 <tsibble [72 × 3]> lm         1 1974 May 1411.
#>  6 <tsibble [72 × 3]> lm         1 1974 Jun 1130.
#>  7 <tsibble [72 × 3]> lm         1 1974 Jul 1230.
#>  8 <tsibble [72 × 3]> lm         1 1974 Aug 1072.
#>  9 <tsibble [72 × 3]> lm         1 1974 Sep 1040.
#> 10 <tsibble [72 × 3]> lm         1 1974 Oct 1543.
#> # … with 350 more rows
…
